region,J01D,J01F,J01M,J01C,その他,全体
Hokkaido,3.492,3.801,2.294,1.31,1.479,12.375
Aomori,3.355,4.402,2.001,1.39,1.129,12.278
Iwate,3.057,3.713,1.839,1.164,1.205,10.978
Miyagi,3.269,4.068,2.14,1.478,1.865,12.819
Akita,3.554,3.963,2.444,1.282,1.079,12.322
Yamagata,3.149,3.725,1.853,1.306,1.015,11.048
Fukushima,3.746,4.033,2.288,1.333,1.592,12.992
Ibaraki,3.59,4.277,2.173,1.599,1.407,13.047
Tochigi,3.718,3.98,2.274,1.444,1.24,12.656
Gunma,3.629,3.645,2.17,1.905,1.169,12.518
Saitama,3.463,3.682,2.003,1.418,1.257,11.824
Chiba,3.35,3.753,1.975,1.86,1.356,12.294
Tokyo,3.948,4.782,2.814,1.886,1.852,15.282
Kanagawa,3.342,4.166,2.153,1.537,1.352,12.549
Niigata,3.497,4.56,2.317,1.267,1.399,13.04
Toyama,3.808,3.635,2.495,1.192,1.302,12.432
Ishikawa,3.535,4.935,2.656,1.268,1.429,13.824
Fukui,3.801,5.111,2.34,1.767,1.635,14.654
Yamanashi,3.579,4.293,1.954,1.224,1.305,12.355
Nagano,3.133,3.991,1.889,1.323,1.216,11.552
Gifu,4.207,4.944,2.693,1.31,1.325,14.479
Shizuoka,3.307,4.967,2.428,1.7,1.232,13.633
Aichi,3.89,4.507,2.583,1.315,1.434,13.728
Mie,4.031,5.449,2.868,1.325,1.313,14.988
Shiga,3.475,4.812,2.025,1.434,1.159,12.904
Kyoto,3.608,4.524,2.358,1.719,1.453,13.662
Osaka,4.123,4.859,2.862,1.726,1.443,15.014
Hyogo,3.597,4.197,2.564,1.71,1.547,13.615
NARA,4.271,4.444,2.54,1.373,1.25,13.878
Wakayama,4.095,4.539,3.405,1.696,1.333,15.068
Tottori,3.404,3.885,2.408,1.511,1.197,12.404
Shimane,3.199,3.893,2.355,1.904,1.033,12.384
Okayama,3.741,5.184,2.812,1.956,1.259,14.951
Hiroshima,3.99,4.605,3.162,1.389,1.523,14.669
Yamaguchi,3.771,4.323,3.13,1.56,1.26,14.045
Tokushima,4.21,5.128,3.329,1.101,1.511,15.278
Kagawa,4.213,4.725,3.316,1.465,1.663,15.382
Ehime,4.216,4.364,3.289,1.558,1.511,14.937
Kochi,3.6,4.658,3.051,1.754,1.344,14.408
Fukuoka,3.774,4.267,3.035,1.694,1.405,14.175
Saga,3.562,5.369,2.811,1.99,1.404,15.136
Nagasaki,3.732,4.391,2.525,1.743,1.074,13.464
Kumamoto,3.973,4.951,3.185,1.813,1.167,15.088
Oita,4.155,5.909,3.448,1.602,1.521,16.635
Miyazaki,4.386,5.37,2.944,1.434,1.839,15.972
Kagoshima,3.823,4.472,2.749,1.958,1.463,14.465
Okinawa,3.474,4.24,1.815,3.339,1.182,14.051
